{
  "appName": "Bhopal",
  "baseUrl": "http://localhost:4000",
  "webAppUrl": "http://localhost:3000",
  "restApiRoot": "/api",
  "host": "0.0.0.0",
  "port": 4000,
  "aclErrorStatus": 403,
  "remoting": {
    "context": {
      "enableHttpContext": true
    },
    "rest": {
      "normalizeHttpPath": false,
      "xml": false
    },
    "json": {
      "strict": false,
      "limit": "100kb"
    },
    "urlencoded": {
      "extended": true,
      "limit": "5000kb"
    },
    "cors": false,
    "errorHandler": {
      "disableStackTrace": false
    }
  },
  "legacyExplorer": false,
  "rabbitMQ": {
    "url": "amqp://localhost"
  },
  "logEntries": {
    "apiKey": "2e5f7fcf-03e5-4f5a-84d3-34afbde704c5",
    "level": "info"
  },
  "logging": {
    "levels": {
      "default": "info",
      "stdout": "info"
    }
  }
}
