{
  "initial:before": {
    "loopback#favicon": {}
  },
  "initial": {
    "compression": {},
    "cors": {
      "params": {
        "origin": true,
        "credentials": true,
        "maxAge": 86400
      }
    }
  },
  "session": {
  },
  "auth:before": {
  },
  "auth": {
  },
  "auth:after": {
  },
  "routes:before": {
    "./middleware/default-scope": {}
  },
  "routes": {
  },
  "files": {
  },
  "final": {
    "loopback#urlNotFound": {}
  },
  "final:after": {
    "errorhandler": {}
  }
}
